{
  "title": "crucigrama",
  "author": "jose stiven mambsucay, MIGUEL DARIO TUNUBALA, brayan alexi tunubala",
  "date": "26/10/17",
  "description": {
    "es": "El objetivo es con una serie de pistas debes encontrar la palabra correspondiente ."
  },
  "meta_langs": [
    "es"
  ],
  "mainFile": "crucigrama.jclic",
  "cover": "project-cover.jpg",
  "thumbnail": "project-thumb.jpg",
  "files": [
    "crucigrama.jclic",
    "crucigrama.jclic.js",
    "favicon.ico",
    "icon-192.png",
    "icon-72.png",
    "imsmanifest.xml",
    "index.html",
    "project-cover.jpg",
    "project-thumb.jpg",
    "project.json"
  ]
}